HW5 Solutions
…
## See spec(...) for full column specifications.

al

## # A tibble: 63,103 x 24
##    `Invoice/Item N Date  `Store Number` `Store Name` Address City  `Zip Code`
##    <chr>            <chr>          <dbl> <chr>        <chr>   <chr>      <dbl>
##  1 INV-16712000040  01/0           2500 Hy-Vee Food 3800 W Ames       50010
##  2 INV-16712000012  01/0           2500 Hy-Vee Food 3800 W Ames       50010
##  3 INV-16712000070  01/0           2500 Hy-Vee Food 3800 W Ames       50010
##  4 INV-16712000009  01/0           2500 Hy-Vee Food 3800 W Ames       50010
##  5 INV-16712000160  01/0           2500 Hy-Vee Food 3800 W Ames       50010
##  6 INV-16712000119  01/0           2500 Hy-Vee Food 3800 W Ames       50010
##  7 INV-16712000153  01/0           2500 Hy-Vee Food 3800 W Ames       50010
##  8 INV-16712000114  01/0           2500 Hy-Vee Food 3800 W Ames       50010
##  9 INV-16834400018  01/0           4251 AJ's Liquor 4518 M Ames       50014
## 10 INV-16834600031  01/0           2500 Hy-Vee Food 3800 W Ames       50010
## #  with 63,093 more rows, and 17 more variables: `Store Location` <chr>,
## #   `County Number` <dbl>, County <chr>, Category <dbl>, `Category Name` <chr>,
## #   `Vendor Number` <chr>, `Vendor Name` <chr>, `Item Number` <dbl>, `Item
## #   Description` <chr>, Pack <dbl>, `Bottle Volume (ml)` <dbl>, `State Bottle
## #   Cost` <dbl>, `State Bottle Retail` <dbl>, `Bottles Sold` <dbl>, `Sale
## #   (Dollars)` <dbl>, `Volume Sold (Liters)` <dbl>, `Volume Sold
## #   (Gallons)` <dbl>
…
4

.

al2 %>%
  group_by(month, day) %>%
  summarize(num_sales = n(), total_volume = sum(`Volume Sold (Gallons)`), total_money =     sum(`Sale (Dollars)`)) %>% 
  arrange(desc(total_volume))

## # A tibble: 157 x 5
## # Groups:   month [12]
##    month day   num_sales total_volume total_money
##    <chr> <chr>     <int>        <dbl>       <dbl>
##  1 07    31          475        4023.     249623.
##  2 12    26         1247        3391.     215595.
##  3 04    10         1015        3234.     166146.
##  4 02    13          962        3029.     147731.
##  5 11    13          505        2962.     180519.
##  6 04    24          497        2911.     152501.
##  7 03    06         1024        2863.     163143.
##  8 04    03         1044        2669.     149549.
##  9 03    27          962        2621.     129834.
## 10 09    25          334        2589.     132360.
## #  with 147 more rows
…
